%YAML 1.1
%TAG !u! tag:unity3d.com,2011:
--- !u!1045 &1
EditorBuildSettings:
  m_ObjectHideFlags: 0
  serializedVersion: 2
  m_Scenes:
  - enabled: 1
    path: Assets/Scenes/SampleScene.unity
    guid: 9fc0d4010bbf28b4594072e72b8655ab
  m_configObjects:
    com.unity.xr.management.loader_settings: {fileID: 11400000, guid: 5cd6a1c335bae024eba86a3765dc2f2f, type: 2}
    com.unity.xr.openxr.settings4: {fileID: 11400000, guid: b42a10339f4632a498a33b7ed67b716a, type: 2}
    xr.sdk.mock-hmd.settings: {fileID: 11400000, guid: 96b262dab39e3204dbb2aa6bb19dc30c, type: 2}
